{
	"": {
		"language": "eo",
		"plural-forms": "pluraloj"
	},
	" ; and no trailling comas: ": " ; kaj ne repetitajn komojn: ",
	" ; column number ": " ; kolumna numero ",
	" General": " Ĝenerala",
	" about how to define a source can be found": " pri kiel difini novan troveblan fonton",
	" and click its ⏰ ": " kaj alklaku ĝin ⏰ ",
	" button.": " butonon.",
	" countries and ": " landoj kaj ",
	" create source": " krei fonton",
	" fetched ": " ekhavitajn ",
	" for ": " por ",
	" here, use only double quotes: ": " ĉi tie nur uzante duoblajn citilojn: ",
	" in ": " en ",
	" is ": " estas ",
	" is needed to read results from the queried source, only those sources are targeted, and permissions can be dropped between searches": " necesas por legi rezultojn de la pridemandita fonto, nur tiuj fontoj estas celitaj, kaj permesoj povas esti faligitaj inter serĉoj",
	" languages.": " lingvoj.",
	" list sources": " listo de fontoj",
	" method;": " HTTP;",
	" needed permission(s).": " bezonata(j) permisilo(j).",
	" new ": " nova ",
	" news ": " novaĵojn ",
	" or your questions:": " aŭ viaj demandoj:",
	" over ": " inter ",
	" permission is only used to signal the end of a long search or new results in a scheduled search": " permeso estas uzata nur por signali la finon de longa serĉo aŭ novajn rezultojn en planita serĉo",
	" permission is used to remember settings and custom sources": " permeso estas uzata por memori agordojn kaj kutimajn fontojn",
	" permission is used to schedule searches": " permeso estas uzata por plani serĉojn",
	" provides results in ": " indikas rezultojn en ",
	" reset filters": " denove fiksi filtrilo",
	" results for \"": " rezultojn por \"",
	" s from ": " s el ",
	" schedule search": " hortabela serĉo",
	" selected source(s) and ": " selektitaj funtoj kaj ",
	" selected, since ": " elektita(j)n, ekde ",
	" selected.": " elektita(j).",
	" selectors to parse HTML;": " elektiloj por analizi HTML;",
	" source(s) ": " fonto(j) ",
	" source(s) over ": " enda(j) fonto(j) ",
	" the ": " la ",
	" to help keeping Meta-Press.es up-to-date.": " por helpi ĝisdatigon de Meta-Press.es.",
	" to help you finding inspiration with examples. For instance :": " por ke oni povu sugesti el ili. Ekzemple :",
	" to read the documentation.": " por legi la dokumentaron.",
	" uses ": " uzas selektilojn ",
	" uses the HTTP ": " uzas la metodon ",
	"(en/fr) and more examples are shown below.": "(en/fr) kaj ekzemploj estas listigitaj ĉi-malsupre.",
	") decentralized press meta-search engine": ") malcentraliza motoro de meta-serĉo por gazetaro",
	", and ": ", kaj ",
	", creating an issue or a pull request.": ", kreante kodan proponon (pull-request).",
	"A propos": "Pri",
	"ATOM file": "ATOM dosiero",
	"Add to the selection": "Aldoni al la selekto",
	"Added": "Aldonita",
	"Added sources will remain accessible between searches and updates.": "La aldonitaj fontoj ĉi tie restos haveblaj inter du serĉoj kaj ĝisdatigoj.",
	"Advanced search": "Evoluinta serĉo",
	"Agenda": "Agendo",
	"All": "Ĉiu",
	"All results": "Ĉiuj rezultoj",
	"Also, this addon periodically (usually once a year) opens the \"journal\" page of the Meta-Press.es project website to present new features.": "Krome, ĉi tiu aldonaĵo periode (kutime unu fojon jare) malfermas la paĝon \" ĵurnalo \" de la retejo Meta-Press.es por prezenti novajn funkciojn.",
	"Artwork by ": "Artverko fare de ",
	"Auto": "Mem",
	"Automatically load news: ": "Aŭtomate elŝutas novaĵojn: ",
	"Automaticaly search in single or many words capable sources: ": "Aŭtomate serĉo en fontoj per unu aŭ pluraj vortoj : ",
	"Bad results": "Malbonaj rezultoj",
	"CSV file": "CSV dosiero",
	"Cancel": "Nuligi",
	"Cancelling…": "Nuliganta…",
	"Clear filter": "Forviŝi filtrilon",
	"Clear search": "Klarigi serĉon",
	"Click ": "Alklaku ",
	"Click here to consult the official online documentation": "Alklaku ĉi tie por konsulti la oficialan retan dokumenton",
	"Click here to start the search. You can also press the Enter key.": "Alklaki ĉi tie por ekserĉi. Oni ankaŭ povas premi la enigan klavon.",
	"Click to abort the search": "Alklaki por abortigi la serĉon",
	"Click to display all results again": "Alklaki por afiŝi denove ĉiujn rezultojn",
	"Click to load image": "Alklaku por ŝarĝi bildon",
	"Click to reload the page and start a new search": "Alklaki por denove elŝuti la paĝon kaj eki novan serĉon",
	"Clone": "Kloni",
	"Clone line": "Kloni lineo",
	"Close src": "Fermi fontojn",
	"Country:": "Lando:",
	"Create sources for Meta-Press.es": "Krei fontojn por Meta-Press.es",
	"Criterion to restrict the research to some sources only. For instance, if you want only French sources, select the 'fr' tag in the Country filter.": "Kritero por restriki la serĉon al nur iuj fontoj. Ekzemple, se vi volas nur esperantajn fontojn, elektu la 'eo'.",
	"Currently ": "Nun ",
	"Custom source(s) commands :": "Kutima(j) mendo(j) de funto(j):",
	"Daily": "Tage",
	"Dark": "Malhela",
	"Dark background: ": "Malhela fono : ",
	"Decentralized press meta-search engine": "Malcentra gazetara meta-serĉilo",
	"Deduplicate results (based on title): ": "Deduktaj rezultoj (surbaze de titoloj) : ",
	"Default": "Implicita",
	"Default page size: ": "Defaŭlta dimensio de paĝo : ",
	"Delete": "Forviŝi",
	"Describe your problem (optional) :": "Priskribi vian problemon (nedeviga):",
	"Do you want to remove your custom source(s) that are also defined in the provided sources now ?": "Ĉu vi nun volas forigi via(j)n,kutima(j)n fonto(j)n kiuj ankaŭ estas definita(j) en provizitaj fontoj?",
	"Doc.": "Dok.",
	"Docu.": "Doku.",
	"Documentation": "Dokumentaro",
	"Drop": "Nuligi",
	"Drop all host permissions: ": "Nuligi ĉiujn gastigantajn permesojn : ",
	"Edit": "Editi",
	"Edit selection": "Redakti selekton",
	"Empty search filter": "Malplena filtrilo de serĉo",
	"Encyclo.": "Enciklo.",
	"Enter your search terms and click on the sided button to start it": "Eniru viajn serĉajn vortojn kaj alkliku la butonon por eki ĝin",
	"Export JSON": "Eksporti JSON",
	"Export selection in:": "Alŝuti la selekton en :",
	"Filter result(s) between:": "Rezulto(sj) de filtrilo inter:",
	"Filter results": "Rezultoj de filtro",
	"Filter results of": "Filtri rezultojn de",
	"Filter sources": "Filtri fontojn",
	"Go to the source page": "Iri al la paĝo de fonto",
	"Here are the ": "Oni trovas ĉi tie la ",
	"Here is what Meta-Press.es is doing with the permissions it asks for :": "Jen kion faras Meta-Press.es kun la permesoj, kiujn ĝi petas:",
	"Hourly": "Hore",
	"INFO :": "INFO :",
	"If you defined usefull sources, or if you still have questions after ": "Se vi difinis taŭgeblajn fontojn kiuj povus utili al aliuloj, aŭ se vi ankoraŭ havas demandojn poste ",
	"Illustrated": "Ilustrita",
	"Import: ": "Importo: ",
	"Inapropriate results": "ne taŭgaj rezultoj",
	"Institution": "Institucio",
	"JSON file": "JSON dosiero",
	"Language:": "Lingvo:",
	"Language: ": "Lingvo : ",
	"Last 2 days": "Lastaj 2 tagoj",
	"Last 2 mon.": "2 monatoj",
	"Last 2 wks": "2 semajnoj",
	"Last 2 yrs": "Lastaj 2 jaroj",
	"Last 3 days": "Lastaj 3 tagoj",
	"Last 5 yrs": "Lastaj 5 jaroj",
	"Last 6 mon.": "6 monatoj",
	"Last day": "Lasta tago",
	"Last decade": "Lasta jardeko",
	"Last month": "Lasta monato",
	"Last search": "Lasta serĉo",
	"Last week": "Lasta semajno",
	"Last year": "Lasta jaro",
	"Launch": "Lanĉi",
	"Light": "Hela",
	"Like this :-)": "Tiele :-)",
	"Line number ": "Linia numero ",
	"Link to the results in the source site": "Ligilo al la rezultoj ĉe la reteja fonto",
	"Load photos in results: ": "Elŝutas fotojn en rezultoj : ",
	"Load some news": "Ŝarĝi iujn novaĵojn",
	"Local permalink for this search": "Ĉi tiea ĉiama ligilo por ĉi tiu serĉo",
	"Magazine": "Revuo",
	"Max. loaded elements: ": "Maksimumaj eroj ŝarĝitaj : ",
	"Max. results by source: ": "Maksimumaj rezultoj je fonto: ",
	"Meta-Press.es butterfly net logo": "Meta-Press.es logo de papilia reto",
	"Meta-Press.es logo by Elisa de Castro Guerra": "Emblemo de Meta-Press.es fare de Elisa de Castro Guerra",
	"Meta-Press.es needs the permission to read the content of the selected sources.\nThose \"host\" permissions can be dropped or requested once and for all via the Meta-Press.es setting page.": "Meta-Press.es bezonas permeson por legi la enhavon de la selektitaj funtoj.\nTiuj permesoj povas esti nuligitaj aŭ denove petataj unufoje kaj ĉiam per la paĝo de agordoj de Meta-Press.es.",
	"Missing results": "Netrovitaj rezultoj",
	"Mobile Dev Tools": "Poŝtelefonaj iloj",
	"Monthly": "Monate",
	"New result(s) for scheduled search": "Nova(j) rezulto(j) por horplana serĉo",
	"Next search date": "Dato de nova serĉo",
	"No result, because of a torn butterfly net ?": "Neniu rezulto, ĉar estas interreta ŝirita papilio?",
	"No results": "Neniu rezulto",
	"No results.": "Neniu rezulto.",
	"Number of results by page:": "Nombro da rezulto(j) ĉiupaĝe:",
	"Number of sources by page:": "Numero de funtoj per paĝo:",
	"Only sources corresponding to all those selected criterion will be searched": "Nur fontoj pri ĉiuj elektitaj temoj estis serĉotaj",
	"Only sources from the selected contries will be searched": "Nur fontoj pri elektitaj landoj estos serĉitaj",
	"Only sources in the selected languages will be searched": "Nur fontoj pri elektitaj lingvoj estos serĉitaj",
	"Only sources of the selected themes will be searched": "Nur fontoj pri elektitaj temoj estos serĉitaj",
	"Only sources of the selected types (press, radio, TV…) will be searched": "Nur fontoj pri elektitaj tipoj (gazetaro, radio, televidilo…) estos serĉitaj",
	"Only sources producing results from those selected types will be searched": "Nur fontoj pri elektitaj tipoj de rezultoj",
	"Peer review": "Kolega reviziado",
	"Periodicity": "Periodo",
	"Permissions": "Permesoj",
	"Please consider a small ": "Bonvolu pripensi malgrandan ",
	"Please copy/paste us the corresponding JavaScript object": "Bonvolu sendi al ni la taŭgan kodon",
	"Please donate today": "Bonvolu donaci hodiaŭ",
	"Position the cursor still over elements to get more info on them.": "Loki la kursoron sur elementon por ekhavi pli da informoj pri ĝi.",
	"Press": "Gazetaro",
	"Put ": "Enskribi ",
	"RSS feed file": "Dosiero RSS",
	"RSS file": "formato RSS",
	"Radio": "Radio",
	"Reference Press": "Referenca Gazetaro",
	"Regional Daily Press": "Regiona Ĉiutaga Gazetaro",
	"Reload news when source filters change: ": "Reŝarĝas novaĵojn post kiam la filtriloj de fonto ŝanĝis : ",
	"Reload search when source filters change: ": "Reŝarĝas serĉon post kiam la filtriloj de fonto ŝanĝis : ",
	"Reload the news": "Reŝargi novaĵojn",
	"Reload your Meta-Press.es addon tab to take your changes into account.": "Alŝutu denove vian aldonaĵon Meta-Press.es por reinformpeti.",
	"Remember host permissions: ": "Memorigi gastigantajn permesojn : ",
	"Remove all": "Forigi ĉion",
	"Remove results of this source": "Formeti tiujn fontajn rezultojn",
	"Remove the current page": "Forigi nunan paĝon",
	"Remove the news": "forigi novaĵojn",
	"Removed": "Forigita",
	"Report a problem for this source": "Raporti problemon pri ĉi tiu fonto",
	"Report problems for: ": "Raporti problemojn por: ",
	"Request": "Peti",
	"Request all host permissions: ": "Peti gastigantajn permesojn : ",
	"Reset default selection": "Reiro al defaŭlto",
	"Result type:": "Speco de rezulto:",
	"Retest": "Ek",
	"Save date / time change": "Konservi datan / tempan ŝanĝon",
	"Save search as:": "Registrigi la serĉon kiel:",
	"Schedule this search": "Planu tiun serĉon",
	"Scientific Press": "Scienca Gazetaro",
	"Search": "Serĉo",
	"Search only in this source": "Serĉi nur en ĉi tiu fonto",
	"Search source report": "Serĉi fontan raporton",
	"Search terms": "Serĉu termojn",
	"Search terms, ex.": "Eroj de serĉo, ekz.",
	"Search timeout (in seconds, 0 for unlimited): ": "Limdaŭro de serĉo (en sekundoj, 0 : sen limo): ",
	"Select all results in page": "Elekti ĉiujn rezultojn en paĝo",
	"Select all sources": "Selekti ĉiujn fontojn",
	"Select at least one source to search in.": "Selekti almenaŭ unu fonton por serĉi.",
	"Select current page": "Selekti nunan paĝon",
	"Selected": "Selektita",
	"Selection mode:": "Elekta reĝimo:",
	"Send": "Sendi",
	"Send search terms and settings ? ": "Sendi vortojn de serĉo kaj agordojn? ",
	"Settings": "Agordoj",
	"Settings of Meta-Press.es": "Agordoj de Meta-Press.es",
	"Show this quantity of headlines at once": "Montri ĉi tiun kvanton da ĉeftitoloj samtempe",
	"Show: ": "Montri : ",
	"Simon Descarpentries is working on this free / libre software since 2013.": "Simon Descarpentries laboras pri ĉi tiu senpaga / libera programaro ekde 2013.",
	"Skip to main input": "Iru al ĉefa enigo",
	"Social network": "Socia reto",
	"Some ": "pluraj ",
	"Sources: ": "Fontoj : ",
	"Start 50 tests": "Eki 50 provojn",
	"Start all tests": "Eki ĉiujn provojn",
	"Stop": "Haltu",
	"Support": "Subteno",
	"TV": "televido",
	"Technical criterion:": "teknikaj kriterioj:",
	"Test JSON diff :": "Diferenciala provo JSON:",
	"Test integrity :": "Provo de integreco:",
	"Test sources :": "Provo de funtojn:",
	"Themes:": "Temoj:",
	"This choice would result in an empty selection.": "Tiu elekto donus malplenan selekton.",
	"This page uses ": "Ĉi tiu paĝo uzas ",
	"Timezone: ": "Horzono : ",
	"To be able to read results from the sources, Meta-Press.es needs their \"host permission\".": "Por kapabli legi rezultadojn el fontoj Meta-Press bezonas iliajn \"host permission\".",
	"To open the search engine, click the [": "Por malfermi la serĉilon, alklalku la",
	"Toggle selection mode": "Baskuligi reĝimon de elektado",
	"Toggle selection state": "Baskuligi staton de elektado",
	"Total": "Totalo",
	"Type your query here": "Tajpu vian serĉon ĉi tie",
	"Type:": "Tipo:",
	"Unselect": "Malselekti",
	"Unselect all results in page": "Malelekti ĉiujn rezultojn en paĝo",
	"View (and select) the sources": "Vidu (kaj selektu) fontojn",
	"View all the sources": "Vidi ĉiujn fontojn",
	"View the added sources": "Vidi aldonitajn fontojn",
	"View the removed sources": "Vidi forigitajn fontojn",
	"View the selected sources": "Vidi selektitajn fontojn",
	"Waiting for…": "Atendanta…",
	"Weekly": "Semajne",
	"Welcome to Meta-Press.es": "Bonvenon al Meta-Press.es",
	"You can also help me dedicating more time to this project supporting Meta-Press.es :": "Vi povas helpi lin dediĉi pli da tempo al ĉi tiu projekto subtenante Meta-Press.es :",
	"You can also help me dedicating more time to this project supporting Meta-Press.es via:": "Vi ankaŭ povas helpi min dediĉi pli da tempo al ĉi tiu projekto subtenante :",
	"You can define more sources to search in, adding the corresponding instructions in the following JSON editing text area.": "Vi povas difini novajn fontojn en kiuj serĉi, aldonante la korespondajn uzindikojn en la sekvanta JSON redaktilo.",
	"You can help him dedicating more time to this project supporting Meta-Press.es via:": "Vi povas helpi lin dediĉi pli da tempo al ĉi tiu projekto subtenante Meta-Press.es :",
	"You can schedule searches. Set the search you want from the ": "Vi povas plani serĉojn. Planu la deziratan serĉon el la ",
	"Your navigator timezone": "Via retumila horzono",
	"] icon in the Firefox bar :": "] ikono en la FIrefox stango:",
	"alarm": "alarmo",
	"all": "ĉiujn",
	"approx": "proksimume",
	"audio": "aŭdio",
	"book": "libro",
	"by email at ": "per retpoŝtmesaĝo al ",
	"cherry-pick": "selekto",
	"code repository": "ĉe la celdosierujo de la projekto",
	"cryptocurrencies: ": "kriptovalutoj: ",
	"donation": "donacon",
	"ecology": "ekologio",
	"events": "eventoj",
	"exact": "ĝusta",
	"export": "Esperanto",
	"extends": "etendas",
	"external search": "ekstera serĉo",
	"fast": "rapida",
	"financial": "financa",
	"general": "ĝenerala",
	"here": "ĉi tie",
	"host permission": "gastiga permeso",
	"https://developer.mozilla.org/en-US/docs/Web/JavaScript/Reference/Global_Objects/JSON/parse": "https://developer.mozilla.org/en-US/docs/Web/JavaScript/Reference/Global_Objects/JSON/parse",
	"https://wiki.laquadrature.net/How_to_IRC": "https://wiki.laquadrature.net/How_to_IRC",
	"https://www.helloasso.com/associations/meta-press-es/formulaires/1/en": "https://www.helloasso.com/associations/meta-press-es/formulaires/1/en",
	"https://www.meta-press.es/pages/a_propos.html#_you_can_support_this_work": "https://www.meta-press.es/pages/a_propos.html#_you_can_support_this_work",
	"https://www.meta-press.es/pages/meta-press.es_documentation.html#_how_to_add_a_new_source_to_the_search_engine": "https://www.meta-press.es/pages/meta-press.es_documentation.html#_how_to_add_a_new_source_to_the_search_engine",
	"icon": "ikono",
	"import": "enporti",
	"instructions": "uzindikoj",
	"internal search": "interna serĉo",
	"life-style": "vivmaniero",
	"main interface": "precipa interfaco",
	"many words": "pluraj vortoj",
	"media": "komunikilo",
	"never empty": "neniam malplena",
	"notification": "sciigo",
	"one shot donations: ": "ununura donaĉoj ",
	"one word": "unu vorto",
	"only": "nur",
	"or via ": "aŭ per ",
	"photo": "foto",
	"politics": "politiko",
	"provided sources": "indikitajn fontojn",
	"reading the doc": "legante la dokumentaron",
	"recurring donations:": "ripetiĝantaj donaĉoj:",
	"recurring donations: ": "revenantaj donaĉoj ",
	"s to parse some fields.": "s por reakiri kampojn.",
	"save modification": "konservas ŝanĝon",
	"schedule search": "Planita serĉo",
	"science": "scienco",
	"search source": "serĉi fonton",
	"slow": "malrapida",
	"space": "kosmo",
	"storage": "memoro",
	"tech": "teknologio",
	"techno.": "tekno.",
	"text": "teksto",
	"the ": "la ",
	"valid JSON": "validan JSON",
	"via the ": "per ",
	"video": "video",
	"waiting for ": "atendas ",
	" Welcome": "Bonvenon",
	"€ Support the project": "€ Reiro ĉe investo",
	"↶  Reset": "↶ Fari denove",
	"⇬ Back to top": "⇬ Reiro supren",
	"⏰ Automatic search": "⏰ Aŭtomota serĉo",
	"☑ Select all": "☑ Selekti ĉion",
	"☑ 📄 Select current page": "☑ 📄 Selekti nunan paĝon",
	"⚙ Settings": "⚙ Agordoj",
	"✅ toggle": "✅ baskuli",
	"✍ Report feedback": "✍ Reiro al uzanto",
	"💾  Save": "💾  Registri",
	"📢 News": "Novaĵoj",
	"📰 New sources": "📰 Novaj fontoj",
	"🔍 Search": "🔍 Serĉo",
	"🔐 Permissions": "🔐 Permesoj",
	"🗑 Remove all": "Forigi ĉion",
	"🗑📄 Remove current page": "🗑📄 Forigi nunan paĝon"
}
