<!DOCTYPE svg PUBLIC "-//W3C//DTD SVG 1.1//EN" "http://www.w3.org/Graphics/SVG/1.1/DTD/svg11.dtd">
<svg version="1.1" xmlns="http://www.w3.org/2000/svg" xmlns:xlink="http://www.w3.org/1999/xlink" x="0px" y="0px" viewBox="0 0 1000 1000" enable-background="new 0 0 1000 1000" xml:space="preserve">
<g transform="translate(0.000000,511.000000) scale(0.100000,-0.100000)" fill="#888"><path d="M423.6,1127v-3883l1520.8-4.6l1518.5-6.9l6.9-1010l4.6-1012.4h3051h3050.9v3161.9v3159.6l-721.1,721.1L8131.8,2976l-797.4,4.6l-797.4,6.9l-11.5,282l-11.6,279.7l-705,730.4l-705,728.1H2764.9L423.6,5010V1127z M5561.6,4023.1l617.1-637.9v-203.4V2976H4826.6H3474.5v-501.6v-499.2l-1097.9,16.2l-1097.9,16.2v-187.2v-184.9h1097.9h1097.9l-4.6-501.6L3463,630L2372,639.3l-1093.3,9.2V459V271.8h1097.9h1097.9v-496.9v-496.9H2376.7H1278.8v-168.7v-171l261.2-13.9c141-9.3,635.6-16.2,1097.9-16.2h836.7v-658.7v-658.7l-1345.2,4.6l-1347.5,6.9v145.6c2.3,78.6,4.6,1666.5,6.9,3529.4l4.6,3386.1H2869h2073.3L5561.6,4023.1z M7866,1947.5v-681.8h679.5h679.5l-2.3-2847.6l-4.6-2849.9l-2697.3-6.9l-2699.6-4.6V-907v3536.3h2022.4H7866V1947.5z M8594.1,2005.3l369.8-369.8h-376.7h-374.4v369.8c0,203.4,2.3,369.8,6.9,369.8C8222,2375.1,8390.7,2208.7,8594.1,2005.3z"/><path d="M1278.8,3186.4v-187.2H2134h855.2v173.3v173.3h-767.4c-423,0-809,6.9-855.2,13.9l-87.8,16.2V3186.4z"/><path d="M4306.6,1138.5V965.2h1363.7H7034v173.4v173.3H5670.3H4306.6V1138.5z"/><path d="M4325.1-40.2c-11.6-11.6-18.5-94.8-18.5-189.5v-168.7h2034h2034v173.3v173.3H7214.2c-640.2,0-1546.3,6.9-2017.8,13.9C4727.3-28.7,4334.3-31,4325.1-40.2z"/><path d="M4311.2-1570.3l6.9-180.3l2029.3-6.9l2027-4.6v168.7v171l-1322.1,13.9c-725.7,9.3-1641,16.2-2034,16.2h-714.2L4311.2-1570.3z"/><path d="M4306.6-2924.8v-171.1l226.5-13.8c122.5-9.3,1037.8-16.2,2034-16.2h1807.5v171v173.3l-282,6.9c-157.2,4.6-1072.4,11.6-2034,13.9l-1752,6.9V-2924.8z"/></g>
</svg>
